…
**We notice that all rows that missing dep\_time also missing
dep\_delay, arr\_time and arr\_delay, then we infer that they are
cancelled flights.**

# 2) Currently dep\_time and sched\_dep\_time are convenient to look at, but hard to compute with because they are not really continuous numbers. Convert them to a more convenient representation of number of minutes since midnight.

``` r
#Convert select columns to minutes since midnight
flights_new <- flights %>% mutate(dep_time_MM = dep_time %/% 100 * 60 + dep_time %% 100,
                                  sched_dep_time_MM = sched_dep_time %/% 100 * 60 + sched_dep_time %% 100)
#Show the result
flights_new %>% select(contains("dep_time"))
```

    ## # A tibble: 336,776 x 4
    ##    dep_time sched_dep_time dep_time_MM sched_dep_time_MM
    ##       <int>          <int>       <dbl>             <dbl>
    ##  1      517            515         317               315
    ##  2      533            529         333               329
    ##  3      542            540         342               340
    ##  4      544            545         344               345
    ##  5      554            600         354               360
    ##  6      554            558         354               358
    ##  7      555            600         355               360
    ##  8      557            600         357               360
    ##  9      557            600         357               360
    ## 10      558            600         358               360
    ## # ... with 336,766 more rows
…
